Division,WeightClassKg,Place,Name,Team,BodyweightKg,Best3SquatKg,Best3BenchKg,Best3DeadliftKg,TotalKg,Equipment,Event,Sex
Boys,55.79,1,Corbin Craver,Mount Vernon,51.89,129.27,77.11,147.42,353.8,Single-ply,SBD,M
Boys,51.71,2,Ja'Vonta Mitchell,Greenville,50.8,136.08,74.84,140.61,351.53,Single-ply,SBD,M
Boys,51.71,3,Cody Brown #5,Lindale,50.98,136.08,72.57,117.93,326.59,Single-ply,SBD,M
Boys,51.71,4,Jesse Peacock,Diana New Diana,49.08,113.4,77.11,117.93,308.44,Single-ply,SBD,M
Boys,51.71,5,Misael Guzman,Mount Vernon,51.44,117.93,63.5,124.74,306.17,Single-ply,SBD,M
Boys,55.79,6,Martin Angeles,Cumby,51.89,97.52,58.97,113.4,269.89,Single-ply,SBD,M
Boys,51.71,7,Pablo Gutierrez #1,Mount Pleasant,45.27,88.45,54.43,124.74,267.62,Single-ply,SBD,M
Boys,51.71,8,Daniel Rubio,Honey Grove,49.08,102.06,43.09,117.93,263.08,Single-ply,SBD,M
Boys,55.79,1,Cooper Gilliland,Royse City,55.16,120.2,70.31,149.69,340.19,Single-ply,SBD,M
Boys,55.79,2,Preston Davis,Lindale,53.89,95.25,58.97,127.01,281.23,Single-ply,SBD,M
Boys,55.79,3,Kason Durhan,Lindale,52.16,99.79,65.77,111.13,276.69,Single-ply,SBD,M
Boys,55.79,4,Landon Willis,Wolfe City,53.93,86.18,65.77,104.33,256.28,Single-ply,SBD,M
Boys,55.79,DQ,Ougo Ortiz,Van,55.07,,,,,Single-ply,SBD,M
Boys,59.87,1,Gage Baughman,Winnsboro,58.79,147.42,95.25,149.69,392.36,Single-ply,SBD,M
Boys,59.87,2,Noah Craver,Mount Vernon,59.24,138.35,68.04,142.88,349.27,Single-ply,SBD,M
Boys,59.87,3,Kam Neely,Lindale,58.97,127.01,72.57,136.08,335.66,Single-ply,SBD,M
Boys,59.87,4,Konner Durham,Lindale,58.33,120.2,70.31,127.01,317.51,Single-ply,SBD,M
Boys,59.87,5,Montana Meador,Lindale,58.79,127.01,61.23,124.74,312.98,Single-ply,SBD,M
Boys,59.87,6,Micah Tilley,Winnsboro,58.88,108.86,70.31,129.27,308.44,Single-ply,SBD,M
Boys,59.87,7,Josh Rodriguez,Honey Grove,59.42,102.06,79.38,124.74,306.17,Single-ply,SBD,M
Boys,59.87,8,James Kirkman,Mount Vernon,56.52,106.59,63.5,129.27,299.37,Single-ply,SBD,M
Boys,59.87,9,Jake Phillips,Lindale,59.06,106.59,65.77,117.93,290.3,Single-ply,SBD,M
Boys,59.87,10,Taylor Hale,Cumby,59.51,92.99,43.09,131.54,267.62,Single-ply,SBD,M
Boys,59.87,DQ,Jessie Smith #2,Hawkins,57.79,,,,,Single-ply,SBD,M
Boys,59.87,DQ,Matt Cochrane,Mabank,58.33,,,,,Single-ply,SBD,M
Boys,67.13,1,Alex Ramsey,Royse City,66.04,213.19,127.01,208.65,548.85,Single-ply,SBD,M
Boys,67.13,2,Wesley McCrary,Wolfe City,65.77,195.04,108.86,181.44,485.34,Single-ply,SBD,M
Boys,67.13,3,Lucas Pinnell,Winnsboro,67.13,170.1,90.72,195.04,455.86,Single-ply,SBD,M
Boys,67.13,4,Jacob Mitchell,Greenville,66.5,170.1,102.06,181.44,453.59,Single-ply,SBD,M
Boys,67.13,5,Josh Boone,Winnsboro,66.13,183.7,124.74,142.88,451.32,Single-ply,SBD,M
Boys,67.13,6,Daniel Bryles,Quinlan Boles,66.41,204.12,102.06,140.61,446.79,Single-ply,SBD,M
Boys,74.84,7,Hoss McElroy,Honey Grove,67.31,163.29,90.72,181.44,435.45,Single-ply,SBD,M
Boys,67.13,8,Denton Bridges,Terrell,67.13,154.22,106.59,165.56,426.38,Single-ply,SBD,M
Boys,67.13,9,Miles Pearson,Diana New Diana,63.23,145.15,95.25,181.44,421.84,Single-ply,SBD,M
Boys,67.13,10,Peter Garcia,Royse City,62.78,163.29,90.72,163.29,417.3,Single-ply,SBD,M
Boys,67.13,11,Kenny Clark,Gladewater,63.23,136.08,97.52,136.08,369.68,Single-ply,SBD,M
Boys,67.13,12,Gustavo Arango,Mineola,63.96,138.35,74.84,151.95,365.14,Single-ply,SBD,M
Boys,67.13,13,Christian Pugh,Royse City,64.86,129.27,83.91,147.42,360.61,Single-ply,SBD,M
Boys,67.13,14,Rogelio Juarez,Van,66.77,124.74,92.99,142.88,360.61,Single-ply,SBD,M
Boys,67.13,15,Spencer Jones,Mineola,61.42,117.93,83.91,147.42,349.27,Single-ply,SBD,M
Boys,67.13,16,Cameron Greenburg,Mount Vernon,66.59,136.08,68.04,138.35,342.46,Single-ply,SBD,M
Boys,67.13,17,Fabian Roman,Quitman,61.96,113.4,83.91,142.88,340.19,Single-ply,SBD,M
Boys,67.13,18,Triston Tinney,Cumby,65.41,113.4,72.57,124.74,310.71,Single-ply,SBD,M
Boys,67.13,DQ,Levi Bettes,Honey Grove,65.32,,,,,Single-ply,SBD,M
Boys,67.13,DQ,Curtis Green,Quinlan Boles,63.32,,,,,Single-ply,SBD,M
Boys,67.13,DQ,Logan Johnson,Lone Oak,63.87,156.49,,,,Single-ply,SBD,M
Boys,67.13,DQ,Johnny Amaro,Wolfe City,62.14,,,,,Single-ply,SBD,M
Boys,74.84,1,Colt Conway,Mabank,72.12,229.06,120.2,183.7,532.97,Single-ply,SBD,M
Boys,74.84,2,Jeremy Moses,Winnsboro,69.31,185.97,117.93,215.46,519.36,Single-ply,SBD,M
Boys,74.84,3,Maurice Ramirez,Winnsboro,73.12,197.31,136.08,183.7,517.1,Single-ply,SBD,M
Boys,74.84,4,Devin Shaw,Lone Oak,73.57,192.78,120.2,197.31,510.29,Single-ply,SBD,M
Boys,74.84,5,Cade Gray,Grand Saline,70.58,167.83,115.67,199.58,483.08,Single-ply,SBD,M
Boys,74.84,6,Tim Caradine,Terrell,71.21,176.9,102.06,204.12,483.08,Single-ply,SBD,M
Boys,74.84,7,Justin Willis,Lindale,71.67,170.1,113.4,190.51,474,Single-ply,SBD,M
Boys,74.84,8,Payton Phillips,Hawkins,71.3,190.51,88.45,192.78,471.74,Single-ply,SBD,M
Boys,74.84,9,Esteban Rodriguez,Lone Oak,72.48,181.44,102.06,183.7,467.2,Single-ply,SBD,M
Boys,74.84,10,Ryan Taylor #9,Lindale,72.48,176.9,99.79,188.24,464.93,Single-ply,SBD,M
Boys,74.84,11,Eric Shaw,Lone Oak,69.4,163.29,106.59,174.63,444.52,Single-ply,SBD,M
Boys,74.84,12,Nick Dunn #2,Hawkins,67.68,165.56,97.52,172.37,435.45,Single-ply,SBD,M
Boys,74.84,13,Daryl Polk,Gladewater,74.66,158.76,92.99,181.44,433.18,Single-ply,SBD,M
Boys,74.84,14,Duke Gordon,Gladewater,68.67,161.03,92.99,174.63,428.64,Single-ply,SBD,M
Boys,74.84,15,Josh Lemus,Van,72.94,154.22,99.79,167.83,421.84,Single-ply,SBD,M
Boys,74.84,16,Deion Russell,Gladewater,72.21,136.08,97.52,185.97,419.57,Single-ply,SBD,M
Boys,74.84,17,Jesse Harwell,Hawkins,72.12,165.56,88.45,163.29,417.3,Single-ply,SBD,M
Boys,74.84,18,Dakota Marshall,Royse City,73.94,163.29,86.18,156.49,405.97,Single-ply,SBD,M
Boys,82.1,19,Zach Auringer,Mount Vernon,74.93,145.15,86.18,161.03,392.36,Single-ply,SBD,M
Boys,74.84,20,Kortland Sinches,Mineola,70.13,151.95,81.65,151.95,385.55,Single-ply,SBD,M
Boys,74.84,21,Devante Wright,Mineola,68.04,147.42,83.91,151.95,383.29,Single-ply,SBD,M
Boys,74.84,22,Jonah Carson,Lone Oak,72.48,120.2,74.84,165.56,360.61,Single-ply,SBD,M
Boys,74.84,23,Harrison Griffin,Diana New Diana,68.76,124.74,,,124.74,Single-ply,S,M
Boys,82.1,1,Eli Gammage,Lone Oak,77.84,192.78,127.01,217.72,537.51,Single-ply,SBD,M
Boys,82.1,2,Nick Folse,Cumby,78.74,192.78,127.01,201.85,521.63,Single-ply,SBD,M
Boys,82.1,3,Kameron Younger,Daingerfield,81.37,208.65,120.2,190.51,519.36,Single-ply,SBD,M
Boys,82.1,4,Ryan Robison,Lindale,77.38,190.51,115.67,206.38,512.56,Single-ply,SBD,M
Boys,82.1,5,Tyler Cheves,Mount Vernon,76.93,179.17,113.4,197.31,489.88,Single-ply,SBD,M
Boys,82.1,6,Michael Hanson,Lindale,76.57,181.44,113.4,192.78,487.61,Single-ply,SBD,M
Boys,82.1,7,Eric Hernandez,Mineola,81.56,176.9,104.33,176.9,458.13,Single-ply,SBD,M
Boys,82.1,8,Marcello Jackson,Gladewater,76.57,165.56,104.33,185.97,455.86,Single-ply,SBD,M
Boys,82.1,9,Jacob Moore,Lindale,76.29,172.37,90.72,181.44,444.52,Single-ply,SBD,M
Boys,82.1,10,Patrick Hoffman,Mount Vernon,76.29,170.1,113.4,156.49,439.98,Single-ply,SBD,M
Boys,82.1,11,Hayden Burnett,Mabank,79.47,158.76,106.59,174.63,439.98,Single-ply,SBD,M
Boys,82.1,12,Bryce Barkowsky,Lindale,80.1,172.37,95.25,172.37,439.98,Single-ply,SBD,M
Boys,82.1,13,Toby Palmer,Diana New Diana,78.83,149.69,97.52,181.44,428.64,Single-ply,SBD,M
Boys,82.1,14,Mitchell Attaway,Winnsboro,81.01,181.44,88.45,158.76,428.64,Single-ply,SBD,M
Boys,82.1,15,Carter Patrick,Honey Grove,77.52,147.42,90.72,181.44,419.57,Single-ply,SBD,M
Boys,82.1,16,Brandon Clark,Grand Saline,78.74,151.95,120.2,145.15,417.3,Single-ply,SBD,M
Boys,82.1,17,Rodney Wells,Terrell,76.02,156.49,90.72,158.76,405.97,Single-ply,SBD,M
Boys,82.1,18,Kory Kent,Quinlan Boles,76.57,136.08,102.06,167.83,405.97,Single-ply,SBD,M
Boys,82.1,19,Jacob DeHart,Lindale,78.93,138.35,90.72,158.76,387.82,Single-ply,SBD,M
Boys,82.1,20,Hunter McQuatters,Honey Grove,79.2,136.08,83.91,158.76,378.75,Single-ply,SBD,M
Boys,82.1,21,Cole Freeman,Diana New Diana,76.11,140.61,68.04,151.95,360.61,Single-ply,SBD,M
Boys,82.1,DQ,Wyatt Collins,Daingerfield,76.02,,,,,Single-ply,SBD,M
Boys,89.81,1,Cody Brantley,Mount Pleasant,84.73,208.65,156.49,201.85,566.99,Single-ply,SBD,M
Boys,89.81,2,Carandal Hale,Greenville,85.37,226.8,120.2,215.46,562.45,Single-ply,SBD,M
Boys,89.81,3,Taylor Sipes,Lindale,87.54,201.85,111.13,210.92,523.9,Single-ply,SBD,M
Boys,89.81,4,Cody Anderson,Cumby,87.91,226.8,106.59,188.24,521.63,Single-ply,SBD,M
Boys,89.81,5,Justin Taylor,Daingerfield,86.45,208.65,108.86,199.58,517.1,Single-ply,SBD,M
Boys,89.81,6,Jarmaine Finney,Honey Grove,86.64,192.78,129.27,190.51,512.56,Single-ply,SBD,M
Boys,89.81,7,Michael McKinney,Royse City,88.18,229.06,102.06,176.9,508.02,Single-ply,SBD,M
Boys,89.81,8,Clay Carson,Mabank,86.45,174.63,102.06,210.92,487.61,Single-ply,SBD,M
Boys,89.81,9,David Mitchell-Blaylock,Winona,88,174.63,113.4,183.7,471.74,Single-ply,SBD,M
Boys,89.81,10,Darnell McKnight,Grand Saline,88.27,174.63,102.06,185.97,462.66,Single-ply,SBD,M
Boys,89.81,11,Cody Brackeen,Gladewater,84.91,170.1,115.67,174.63,460.4,Single-ply,SBD,M
Boys,89.81,12,Andrew Turner,Mount Pleasant,85,151.95,111.13,190.51,453.59,Single-ply,SBD,M
Boys,89.81,13,Mark Callaway,Royse City,85.18,167.83,90.72,190.51,449.06,Single-ply,SBD,M
Boys,89.81,14,Neal Tucker,Terrell,86.73,170.1,106.59,167.83,444.52,Single-ply,SBD,M
Boys,89.81,15,Nick Grace,Lindale,84.91,154.22,90.72,185.97,430.91,Single-ply,SBD,M
Boys,89.81,16,Chris Dells,Diana New Diana,88.09,145.15,88.45,170.1,403.7,Single-ply,SBD,M
Boys,89.81,17,Desmund Brown,Terrell,85.82,149.69,83.91,154.22,387.82,Single-ply,SBD,M
Boys,89.81,18,Jesse Head,Lindale,82.83,145.15,68.04,142.88,356.07,Single-ply,SBD,M
Boys,89.81,19,Cory Young,Lindale,88,145.15,72.57,133.81,351.53,Single-ply,SBD,M
Boys,89.81,DQ,Matt Caldwell,Gilmer,84.37,158.76,102.06,,,Single-ply,SBD,M
Boys,99.79,1,Jared Loftis,Royse City,93.89,260.82,138.35,254.01,653.17,Single-ply,SBD,M
Boys,99.79,2,Braylon Champion,Greenville,96.07,235.87,129.27,263.08,628.23,Single-ply,SBD,M
Boys,99.79,3,Bryan Winburn,Winnsboro,97.89,238.14,147.42,226.8,612.35,Single-ply,SBD,M
Boys,99.79,4,Antonio Harris,Terrell,98.52,233.6,149.69,226.8,610.08,Single-ply,SBD,M
Boys,99.79,5,Tyrik Anderson,Greenville,98.16,249.48,131.54,215.46,596.47,Single-ply,SBD,M
Boys,99.79,6,Myles Morgan,Lindale,94.17,226.8,140.61,226.8,594.21,Single-ply,SBD,M
Boys,99.79,7,Tyson Gearner,Winnsboro,95.07,213.19,138.35,213.19,564.72,Single-ply,SBD,M
Boys,99.79,8,Tylor Libby,Cumby,96.89,204.12,129.27,222.26,555.65,Single-ply,SBD,M
Boys,99.79,9,Joseph Hart,Winona,95.25,192.78,127.01,219.99,539.77,Single-ply,SBD,M
Boys,99.79,10,Will Anderson,Mount Pleasant,97.52,190.51,124.74,188.24,503.49,Single-ply,SBD,M
Boys,99.79,11,Rowdy Smith,Winnsboro,99.16,210.92,108.86,181.44,501.22,Single-ply,SBD,M
Boys,99.79,12,Garrett Land,Lone Oak,92.8,188.24,102.06,201.85,492.15,Single-ply,SBD,M
Boys,109.77,13,Zachary Simons,Wolfe City,99.97,185.97,102.06,176.9,464.93,Single-ply,SBD,M
Boys,99.79,14,Sammy Palma,Grand Saline,90.08,167.83,92.99,170.1,430.91,Single-ply,SBD,M
Boys,99.79,15,Mitchell Parra,Mount Pleasant,95.62,170.1,90.72,158.76,419.57,Single-ply,SBD,M
Boys,99.79,16,Recus Hayes,Daingerfield,90.54,158.76,92.99,158.76,410.5,Single-ply,SBD,M
Boys,99.79,17,Justus Sciber,Lone Oak,92.17,163.29,92.99,154.22,410.5,Single-ply,SBD,M
Boys,99.79,18,Jose Ramirez #6,Lindale,99.79,192.78,,,192.78,Single-ply,S,M
Boys,109.77,1,Stetson Farrell,Lindale,103.33,272.16,172.37,226.8,671.32,Single-ply,SBD,M
Boys,109.77,2,Ciprano Gonzales,Greenville,104.69,265.35,163.29,208.65,637.3,Single-ply,SBD,M
Boys,109.77,3,Landon Wright,Lindale,105.6,219.99,131.54,222.26,573.79,Single-ply,SBD,M
Boys,109.77,4,Josh Hurst,Mineola,106.32,226.8,115.67,219.99,562.45,Single-ply,SBD,M
Boys,109.77,5,Hunter Smith #1,Greenville,104.6,217.72,113.4,215.46,546.58,Single-ply,SBD,M
Boys,109.77,6,Grant Ferley,Quinlan Boles,108.14,195.04,106.59,197.31,498.95,Single-ply,SBD,M
Boys,109.77,7,Joseph McKee,Winnsboro,108.59,183.7,120.2,188.24,492.15,Single-ply,SBD,M
Boys,109.77,8,Tim Wilson,Winona,102.6,167.83,117.93,197.31,483.08,Single-ply,SBD,M
Boys,109.77,9,William Reynolds,Diana New Diana,106.68,190.51,99.79,181.44,471.74,Single-ply,SBD,M
Boys,109.77,10,Noel Rojo,Mabank,106.68,183.7,102.06,183.7,469.47,Single-ply,SBD,M
Boys,109.77,11,Fili Rincon,Lone Oak,101.51,181.44,102.06,181.44,464.93,Single-ply,SBD,M
Boys,109.77,12,Thorn Berry,Gladewater,108.59,156.49,124.74,181.44,462.66,Single-ply,SBD,M
Boys,109.77,13,Jacob Adams,Lindale,103.42,172.37,102.06,174.63,449.06,Single-ply,SBD,M
Boys,109.77,14,Devin Andrews,Mount Vernon,102.87,183.7,79.38,181.44,444.52,Single-ply,SBD,M
Boys,109.77,15,Baltizaar Santiago,Quitman,102.51,149.69,97.52,183.7,430.91,Single-ply,SBD,M
Boys,109.77,16,Roland Stevens,Grand Saline,103.96,163.29,90.72,158.76,412.77,Single-ply,SBD,M
Boys,109.77,DQ,Xza Epps,Honey Grove,105.51,158.76,74.84,,,Single-ply,SBD,M
Boys,109.77,DQ,Chris Durham,Diana New Diana,101.79,,,,,Single-ply,SBD,M
Boys,124.74,1,Matthew Busby,Lone Oak,124.47,317.51,165.56,260.82,743.89,Single-ply,SBD,M
Boys,124.74,2,Dillon Stevens,Greenville,112.4,247.21,133.81,226.8,607.81,Single-ply,SBD,M
Boys,124.74,3,Jose Reyes,Royse City,115.58,263.08,158.76,181.44,603.28,Single-ply,SBD,M
Boys,124.74,4,Aquavion Evans,Mount Vernon,113.49,249.48,124.74,204.12,578.33,Single-ply,SBD,M
Boys,124.74,5,Mitchell Wheat,Greenville,121.02,235.87,136.08,204.12,576.06,Single-ply,SBD,M
Boys,124.74,6,James Hanson,Mount Pleasant,118.84,219.99,117.93,235.87,573.79,Single-ply,SBD,M
Boys,124.74,7,Emiliano Ramirez,Quitman,116.39,208.65,129.27,188.24,526.17,Single-ply,SBD,M
Boys,124.74,8,Chris Figueroa,Grand Saline,112.04,204.12,108.86,208.65,521.63,Single-ply,SBD,M
Boys,124.74,9,Cameron Fleming,Lindale,117.66,226.8,115.67,174.63,517.1,Single-ply,SBD,M
Boys,124.74,10,Dylan Currie,Grand Saline,115.48,192.78,122.47,174.63,489.88,Single-ply,SBD,M
Boys,124.74,11,Ja'Coby Paul,Terrell,111.77,167.83,131.54,185.97,485.34,Single-ply,SBD,M
Boys,124.74,12,Isaac Espinoza,Gladewater,120.02,183.7,97.52,192.78,474,Single-ply,SBD,M
Boys,124.74,13,Peter Ramirez,Quitman,124.1,172.37,113.4,158.76,444.52,Single-ply,SBD,M
Boys,124.74,14,Ben Grissom,Mount Pleasant,117.39,142.88,79.38,124.74,347,Single-ply,SBD,M
Boys,124.74,DQ,Joel Bautista,Mount Pleasant,121.56,,,,,Single-ply,SBD,M
Boys,124.74+,1,Will Wright,Mount Pleasant,164.29,285.76,156.49,208.65,650.91,Single-ply,SBD,M
Boys,124.74+,2,Tristan Fritch,Van,170.19,272.16,158.76,204.12,635.03,Single-ply,SBD,M
Boys,124.74+,3,Cameron Canady,Greenville,139.43,226.8,142.88,260.82,630.49,Single-ply,SBD,M
Boys,124.74+,4,Trey Villareal,Diana New Diana,140.61,235.87,151.95,240.4,628.23,Single-ply,SBD,M
Boys,124.74+,5,Cody Taylor,Royse City,126.92,231.33,145.15,249.48,625.96,Single-ply,SBD,M
Boys,124.74+,6,Keithan Walker,Daingerfield,132.99,272.16,124.74,215.46,612.35,Single-ply,SBD,M
Boys,124.74+,7,Justin Stadtfeld,Gladewater,151.86,235.87,158.76,197.31,591.94,Single-ply,SBD,M
Boys,124.74+,8,Eric Roberts,Terrell,132.63,249.48,140.61,199.58,589.67,Single-ply,SBD,M
Boys,124.74+,9,Willie Evans,Daingerfield,182.8,226.8,124.74,217.72,569.26,Single-ply,SBD,M
Boys,124.74+,10,Chris Carrington,Gladewater,132.9,233.6,111.13,199.58,544.31,Single-ply,SBD,M
Boys,124.74+,11,Jalen Brown #1,Mount Pleasant,134.35,188.24,142.88,213.19,544.31,Single-ply,SBD,M
Boys,124.74+,12,Dre Tennison,Gladewater,128.46,233.6,124.74,183.7,542.04,Single-ply,SBD,M
Boys,124.74+,13,Montana Bottone,Greenville,138.71,215.46,142.88,181.44,539.77,Single-ply,SBD,M
Boys,124.74+,14,Colton Moore,Lindale,137.89,219.99,117.93,199.58,537.51,Single-ply,SBD,M
Boys,124.74+,15,Garrett Barnes,Grand Saline,134.35,238.14,106.59,183.7,528.44,Single-ply,SBD,M
Boys,124.74+,16,Blake Shaw,Honey Grove,155.67,188.24,136.08,192.78,517.1,Single-ply,SBD,M
Boys,124.74+,17,Austin Frye,Royse City,131.81,210.92,113.4,181.44,505.76,Single-ply,SBD,M
Boys,124.74+,18,Bobby Wells,Quitman,137.44,181.44,136.08,183.7,501.22,Single-ply,SBD,M
Boys,124.74+,19,Caleb Johnson,Mount Pleasant,125.01,188.24,81.65,170.1,439.98,Single-ply,SBD,M
Boys,124.74+,20,Dakota Jeffus,Gladewater,130.18,142.88,102.06,192.78,437.72,Single-ply,SBD,M
Boys,124.74+,21,Gaylon Graydick,Lindale,134.54,167.83,81.65,165.56,415.04,Single-ply,SBD,M
Boys,124.74+,22,Darrian Terry,Daingerfield,125.92,170.1,90.72,151.95,412.77,Single-ply,SBD,M
Boys,124.74+,DQ,Jonathan Clark #5,Honey Grove,140.8,204.12,113.4,,,Single-ply,SBD,M
