﻿DFPFNL Nationaal kamioenschap 2020
Bankdrukken Unequipped
                                                                                                   B.W     1      2      3       4       score
1                                    - 58,5 KG Zwerts              Rowana    F   NED     21   JR   57,3    65     67,5   70      -75     62,59
1                                    - 63 KG Koolhaas Revers Ina             F   NED     72   M7   61,9    52,5   55     57,5            48,19
1                                    82,5 KG Van Dorsten           Kevin         M NED   17   T2   78,2    92,5   97,5   100     102,5   64,36
1                                    82,5 KG van Bijnen            Marcel        M NED   49   M2   82,5    92,5   100    105             65,03
1                                    82,5 KG Marten                Norman        M NED   60   M5   80,0    80     87,5   -90             55,38
1                                    90 KG van Bijnen              Gilbert       M NED   47   M2   86,9    130    140    -146            83,75
1                                    100 KG Colle                  Orpheo        M NED   21   JR   92,6    155    160    170     -173    97,89
1                                    100 KG Jandroep               Jairo         M NED   39   SR   94,2    170    175    180     182,5   102,67
1                                    125 KG Harms                  Orson         M NED   45   M2   124,5   150    -160   -160            78,26
1                                    125 KG Zwerts                 Walter        M NED   54   M3   116,3   175    181    -190            95,44
1                                    145 KG De Witte               Johny         M NED   51   M3   126,4   155    165    172,5           89,58
1                                    145 KG Vroom                  Victor        M NED   57   M4   128,7   105    115    -120            59,41
1                                    + 145 KG Hamers               René          M NED   51   M3   159,1   180    -185   185     -188    89,58
                                     Deadlift Unequipped
1                                    - 58,5 KG Zwerts              Rowana    F   NED     21   JR   57,30   130    135    140     150     125,17
1                                    - 63 KG Koolhaas Revers Ina             F   NED     72   M7   61,90   125    130    -136            108,95
1                                    82,5 KG van Bijnen            Marcel    M   NED     49   M2   82,50   150    160    172,5           106,83
1                                    82,5 KG Marten                Norman    M   NED     60   M5   80,00   155    165    170             107,59
Nationaal record
Wereld record
Drugtest
29 feb 2020
