Place,Name,Sex,BirthYear,Age,Country,State,Equipment,Division,BodyweightKg,WeightClassKg,Squat1Kg,Squat2Kg,Squat3Kg,Best3SquatKg,Bench1Kg,Bench2Kg,Bench3Kg,Best3BenchKg,Deadlift1Kg,Deadlift2Kg,Deadlift3Kg,Best3DeadliftKg,TotalKg,Event,BirthDate
1,Marilyn Yee,F,1991,30,,CA,Wraps,Open,74.8,75,142.5,157.5,165,165,72.5,87.5,95,95,-150,165,170,170,430,SBD,
1,Gisselle Cepeda,F,2002,19,,CA,Raw,Sub-Juniors 17-19,49.7,52,80,87.5,100,100,-47.5,55,-65,55,87.5,102.5,110,110,265,SBD,
1,Shanette Wight,F,1977,45,,CA,Raw,Masters 45-49,67.5,67.5,120,127.5,132.5,132.5,50,55,60,60,112.5,120,125,125,317.5,SBD,
1,Shanette Wight,F,1977,45,,CA,Raw,Open,67.5,67.5,120,127.5,132.5,132.5,50,55,60,60,112.5,120,125,125,317.5,SBD,
2,Victoria Vargas,F,1997,24,,AZ,Raw,Open,63.8,67.5,82.5,97.5,102.5,102.5,55,60,-65,60,107.5,117.5,125,125,287.5,SBD,
3,Tatjana Sebro,F,1987,35,,CA,Raw,Open,67.3,67.5,-67.5,67.5,70,70,72.5,77.5,-82.5,77.5,-102.5,105,110,110,257.5,SBD,
1,Jennifer Hernandez,F,1986,35,,CA,Raw,Open,98,100,-100,105,-110,105,50,55,-60,55,107.5,115,-120,115,275,SBD,
1,Tonett Peraza-Baker,F,1987,35,,CA,Raw,Open,100.9,110,50,60,80,80,45,55,-70,55,90,105,125,125,260,SBD,
1,Alicia Morris,F,1995,26,,CA,Raw,Open,117.6,125,155,165,172.5,172.5,92.5,97.5,-105,97.5,182.5,-195,195,195,465,SBD,
2,Maria Edholm,F,1994,27,,CA,Raw,Open,112.1,125,-147.5,152.5,165,165,77.5,82.5,87.5,87.5,160,165,170,170,422.5,SBD,
3,Patricia Stephens,F,1986,36,,CA,Raw,Open,114,125,110,117.5,-122.5,117.5,47.5,52.5,-57.5,52.5,137.5,145,150,150,320,SBD,
1,Gisselle Cepeda,F,2002,19,,CA,Raw,Sub-Juniors 17-19,49.7,52,,,,,-47.5,55,-65,55,87.5,102.5,110,110,165,BD,
1,Reid Corley,M,1978,44,,CA,Wraps,Masters 40-44,98.7,100,177.5,185,192.5,192.5,127.5,-135,-135,127.5,232.5,242.5,252.5,252.5,572.5,SBD,
1,Henry Wight,M,1969,52,,CA,Wraps,Masters 50-54,95.5,100,-232.5,232.5,242.5,242.5,145,150,152.5,152.5,210,-220,-220,210,605,SBD,
1,Henry Wight,M,1969,52,,CA,Wraps,Open,95.5,100,-232.5,232.5,242.5,242.5,145,150,152.5,152.5,210,-220,-220,210,605,SBD,
1,Drew Evan Miles III,M,2006,15,,CA,Raw,Teen 14-16,59.2,60,75,85,-100,85,60,65,70,70,100,107.5,115,115,270,SBD,
1,Karmann Singh,M,2004,18,,CA,Raw,Sub-Juniors 17-19,88.3,90,157.5,-170,175,175,95,100,-107.5,100,195,207.5,215,215,490,SBD,
1,Mario Martinez,M,2002,19,,CA,Raw,Sub-Juniors 17-19,90.5,100,157.5,172.5,182.5,182.5,100,107.5,-112.5,107.5,165,182.5,-192.5,182.5,472.5,SBD,
1,Colton Klais,M,2000,22,,CA,Raw,Juniors 20-23,74.2,75,162.5,177.5,-185,177.5,112.5,-125,130,130,220,227.5,-232.5,227.5,535,SBD,
1,Michael Enriquez,M,2001,20,,CA,Raw,Juniors 20-23,78.2,82.5,165,180,187.5,187.5,97.5,107.5,112.5,112.5,190,202.5,220,220,520,SBD,
1,Michael Robles,M,1999,22,,CA,Raw,Juniors 20-23,89.2,90,165,177.5,190,190,97.5,105,112.5,112.5,205,220,232.5,232.5,535,SBD,
1,Jose Aguilar,M,1999,23,,CA,Raw,Juniors 20-23,106.2,110,205,212.5,222.5,222.5,137.5,142.5,145,145,245,-260,260,260,627.5,SBD,
1,Anthony T Adams,M,1970,52,,CA,Raw,Masters 50-54,92,100,102.5,165,190,190,102.5,122.5,135,135,102.5,162.5,185,185,510,SBD,
1,Aaron Navarro,M,1999,22,,AZ,Raw,Open,54.1,56,107.5,112.5,117.5,117.5,65,72.5,-80,72.5,140,145,152.5,152.5,342.5,SBD,
1,Chris Fernandez,M,1994,28,,CA,Raw,Open,64.8,67.5,142.5,152.5,160,160,87.5,97.5,105,105,200,-215,227.5,227.5,492.5,SBD,
1,Corey Kado,M,1994,28,,CA,Raw,Open,73.9,75,190,200,-210,200,145,160,-162.5,160,220,232.5,-242.5,232.5,592.5,SBD,
2,Colton Klais,M,2000,22,,CA,Raw,Open,74.2,75,162.5,177.5,-185,177.5,112.5,-125,130,130,220,227.5,-232.5,227.5,535,SBD,
1,Mark Allen,M,1993,29,,CA,Raw,Open,81,82.5,177.5,192.5,200,200,130,137.5,140,140,255,-267.5,267.5,267.5,607.5,SBD,
2,Andres Lucero #1,M,1988,33,,,Raw,Open,79.7,82.5,125,135,140,140,92.5,-97.5,97.5,97.5,142.5,160,-180,160,397.5,SBD,
1,Tyler Sellers,M,1997,24,,CA,Raw,Open,86.1,90,232.5,245,-265,245,150,160,170,170,255,270,277.5,277.5,692.5,SBD,
2,Ryan Smith,M,1983,38,,CA,Raw,Open,86.5,90,175,185,190,190,130,145,-152.5,145,220,-227.5,227.5,227.5,562.5,SBD,
1,Danjustin Canonizado,M,1997,25,,CA,Raw,Open,95.8,100,192.5,-207.5,207.5,207.5,115,-127.5,-130,115,200,215,227.5,227.5,550,SBD,
2,Ritchy Martinez,M,1990,32,,CA,Raw,Open,96,100,160,172.5,-182.5,172.5,110,120,-125,120,205,217.5,-227.5,217.5,510,SBD,
1,Andrew Harris,M,1986,36,,CA,Raw,Open,102.9,110,220,240,-255,240,155,165,-177.5,165,275,285,-290,285,690,SBD,
1,Ryan Smith,M,1983,38,,CA,Raw,Submasters 35-39,86.5,90,175,185,190,190,130,145,-152.5,145,220,-227.5,227.5,227.5,562.5,SBD,
1,Andrew Harris,M,1986,36,,CA,Raw,Submasters 35-39,102.9,110,220,240,-255,240,155,165,-177.5,165,275,285,-290,285,690,SBD,
1,Anthony T Adams,M,1970,52,,CA,Raw,Masters 50-54,92,100,,,,,102.5,122.5,135,135,102.5,162.5,185,185,320,BD,
1,Anthony T Adams,M,1970,52,,CA,Raw,Open,92,100,,,,,102.5,122.5,135,135,102.5,162.5,185,185,320,BD,
1,Ryan Smith,M,1983,38,,CA,Raw,Open,86.5,90,,,,,,,,,220,-227.5,227.5,227.5,227.5,D,
